Copyright 1986-2018 Xilinx, Inc. All Rights Reserved.
----------------------------------------------------------------------------------------------------------------------------------
| Tool Version     : Vivado v.2018.2 (win64) Build 2258646 Thu Jun 14 20:03:12 MDT 2018
| Date             : Sat Apr 16 17:50:09 2022
| Host             : DESKTOP-DNF5IPP running 64-bit major release  (build 9200)
| Command          : report_power -file lab4_power_routed.rpt -pb lab4_power_summary_routed.pb -rpx lab4_power_routed.rpx
| Design           : lab4
| Device           : xc7a200tsbg484-1
| Design State     : routed
| Grade            : commercial
| Process          : typical
| Characterization : Production
----------------------------------------------------------------------------------------------------------------------------------

Power Report

Table of Contents
-----------------
1. Summary
1.1 On-Chip Components
1.2 Power Supply Summary
1.3 Confidence Level
2. Settings
2.1 Environment
2.2 Clock Constraints
3. Detailed Reports
3.1 By Hierarchy

1. Summary
----------

+--------------------------+--------------+
| Total On-Chip Power (W)  | 0.517        |
| Design Power Budget (W)  | Unspecified* |
| Power Budget Margin (W)  | NA           |
| Dynamic (W)              | 0.377        |
| Device Static (W)        | 0.140        |
| Effective TJA (C/W)      | 3.3          |
| Max Ambient (C)          | 83.3         |
| Junction Temperature (C) | 26.7         |
| Confidence Level         | Low          |
| Setting File             | ---          |
| Simulation Activity File | ---          |
| Design Nets Matched      | NA           |
+--------------------------+--------------+
* Specify Design Power Budget using, set_operating_conditions -design_power_budget <value in Watts>


1.1 On-Chip Components
----------------------

+----------------+-----------+----------+-----------+-----------------+
| On-Chip        | Power (W) | Used     | Available | Utilization (%) |
+----------------+-----------+----------+-----------+-----------------+
| Clocks         |     0.006 |       10 |       --- |             --- |
| Slice Logic    |     0.001 |     1142 |       --- |             --- |
|   LUT as Logic |    <0.001 |      542 |    133800 |            0.41 |
|   CARRY4       |    <0.001 |       54 |     33450 |            0.16 |
|   Register     |    <0.001 |      420 |    267600 |            0.16 |
|   BUFG         |    <0.001 |        1 |        32 |            3.13 |
|   Others       |     0.000 |       41 |       --- |             --- |
| Signals        |     0.002 |      812 |       --- |             --- |
| Block RAM      |     0.003 |      1.5 |       365 |            0.41 |
| MMCM           |     0.228 |        2 |        10 |           20.00 |
| DSPs           |     0.002 |        2 |       740 |            0.27 |
| I/O            |     0.135 |       27 |       285 |            9.47 |
| Static Power   |     0.140 |          |           |                 |
| Total          |     0.517 |          |           |                 |
+----------------+-----------+----------+-----------+-----------------+


1.2 Power Supply Summary
------------------------

+-----------+-------------+-----------+-------------+------------+
| Source    | Voltage (V) | Total (A) | Dynamic (A) | Static (A) |
+-----------+-------------+-----------+-------------+------------+
| Vccint    |       1.000 |     0.047 |       0.015 |      0.032 |
| Vccaux    |       1.800 |     0.157 |       0.127 |      0.031 |
| Vcco33    |       3.300 |     0.046 |       0.041 |      0.005 |
| Vcco25    |       2.500 |     0.000 |       0.000 |      0.000 |
| Vcco18    |       1.800 |     0.000 |       0.000 |      0.000 |
| Vcco15    |       1.500 |     0.000 |       0.000 |      0.000 |
| Vcco135   |       1.350 |     0.000 |       0.000 |      0.000 |
| Vcco12    |       1.200 |     0.000 |       0.000 |      0.000 |
| Vccaux_io |       1.800 |     0.000 |       0.000 |      0.000 |
| Vccbram   |       1.000 |     0.001 |       0.000 |      0.001 |
| MGTAVcc   |       1.000 |     0.000 |       0.000 |      0.000 |
| MGTAVtt   |       1.200 |     0.000 |       0.000 |      0.000 |
| Vccadc    |       1.800 |     0.020 |       0.000 |      0.020 |
+-----------+-------------+-----------+-------------+------------+


1.3 Confidence Level
--------------------

+-----------------------------+------------+--------------------------------------------------------+--------------------------------------------------------------------------------------------------------------------+
| User Input Data             | Confidence | Details                                                | Action                                                                                                             |
+-----------------------------+------------+--------------------------------------------------------+--------------------------------------------------------------------------------------------------------------------+
| Design implementation state | High       | Design is routed                                       |                                                                                                                    |
| Clock nodes activity        | Medium     | More than 5% of clocks are missing user specification  | Provide missing clock activity with a constraint file, simulation results or by editing the "By Clock Domain" view |
| I/O nodes activity          | Low        | More than 75% of inputs are missing user specification | Provide missing input activity with simulation results or by editing the "By Resource Type -> I/Os" view           |
| Internal nodes activity     | Medium     | User specified less than 25% of internal nodes         | Provide missing internal nodes activity with simulation results or by editing the "By Resource Type" views         |
| Device models               | High       | Device models are Production                           |                                                                                                                    |
|                             |            |                                                        |                                                                                                                    |
| Overall confidence level    | Low        |                                                        |                                                                                                                    |
+-----------------------------+------------+--------------------------------------------------------+--------------------------------------------------------------------------------------------------------------------+


2. Settings
-----------

2.1 Environment
---------------

+-----------------------+--------------------------+
| Ambient Temp (C)      | 25.0                     |
| ThetaJA (C/W)         | 3.3                      |
| Airflow (LFM)         | 250                      |
| Heat Sink             | medium (Medium Profile)  |
| ThetaSA (C/W)         | 4.6                      |
| Board Selection       | medium (10"x10")         |
| # of Board Layers     | 12to15 (12 to 15 Layers) |
| Board Temperature (C) | 25.0                     |
+-----------------------+--------------------------+


2.2 Clock Constraints
---------------------

+----------------------------------------------------------------+---------------------------------------------------------------------------+-----------------+
| Clock                                                          | Domain                                                                    | Constraint (ns) |
+----------------------------------------------------------------+---------------------------------------------------------------------------+-----------------+
| clk_out1_clk_wiz_0                                             | datapath2/video_inst/mmcm_adv_inst_display_clocks/inst/clk_out1_clk_wiz_0 |            40.0 |
| clk_out1_clk_wiz_1                                             | datapath2/wrapper_inst/audiocodec_master_clock/inst/clk_out1_clk_wiz_1    |            81.4 |
| clk_out2_clk_wiz_0                                             | datapath2/video_inst/mmcm_adv_inst_display_clocks/inst/clk_out2_clk_wiz_0 |             8.0 |
| clk_out2_clk_wiz_1                                             | datapath2/wrapper_inst/audiocodec_master_clock/inst/clk_out2_clk_wiz_1    |            20.0 |
| clkfbout_clk_wiz_0                                             | datapath2/video_inst/mmcm_adv_inst_display_clocks/inst/clkfbout_clk_wiz_0 |            10.0 |
| clkfbout_clk_wiz_1                                             | datapath2/wrapper_inst/audiocodec_master_clock/inst/clkfbout_clk_wiz_1    |            10.0 |
| datapath2/video_inst/mmcm_adv_inst_display_clocks/inst/clk_in1 | clk_IBUF_BUFG                                                             |            10.0 |
+----------------------------------------------------------------+---------------------------------------------------------------------------+-----------------+


3. Detailed Reports
-------------------

3.1 By Hierarchy
----------------

+------------------------------------+-----------+
| Name                               | Power (W) |
+------------------------------------+-----------+
| lab4                               |     0.377 |
|   control2                         |    <0.001 |
|   control4                         |    <0.001 |
|   datapath2                        |     0.368 |
|     leftChannelMemory              |    <0.001 |
|     rightChannelMemory             |     0.001 |
|     video_inst                     |     0.241 |
|       Inst_vga                     |    <0.001 |
|         Face                       |    <0.001 |
|       inst_dvid                    |     0.001 |
|         TDMS_encoder_blue          |    <0.001 |
|         TDMS_encoder_green         |    <0.001 |
|         TDMS_encoder_red           |    <0.001 |
|       mmcm_adv_inst_display_clocks |     0.107 |
|         inst                       |     0.107 |
|     wrapper_inst                   |     0.125 |
|       audio_inout                  |    <0.001 |
|       audiocodec_master_clock      |     0.123 |
|         inst                       |     0.123 |
|       initialize_audio             |    <0.001 |
|         twi_controller             |    <0.001 |
|   datapath4                        |     0.006 |
|     rightChannelMemory             |     0.001 |
|   scl_IOBUF_inst                   |     0.000 |
|   sda_IOBUF_inst                   |     0.000 |
+------------------------------------+-----------+


