Design Route Status
                                               :      # nets :
   ------------------------------------------- : ----------- :
   # of logical nets.......................... :        1356 :
       # of nets not needing routing.......... :         529 :
           # of internally routed nets........ :         529 :
       # of routable nets..................... :         827 :
           # of fully routed nets............. :         827 :
       # of nets with routing errors.......... :           0 :
   ------------------------------------------- : ----------- :

