xpm_cdc.sv,systemverilog,xil_defaultlib,../../../../../../Xilinx/Vivado/2018.2/data/ip/xpm/xpm_cdc/hdl/xpm_cdc.sv,incdir="../../../../my_lab3_ip_2.0/src/clk_wiz_1"
xpm_VCOMP.vhd,vhdl,xpm,../../../../../../Xilinx/Vivado/2018.2/data/ip/xpm/xpm_VCOMP.vhd,incdir="../../../../my_lab3_ip_2.0/src/clk_wiz_1"
glbl.v,Verilog,xil_defaultlib,glbl.v
