vhdl xil_defaultlib  \
"../../../bd/design_1/ip/design_1_microblaze_0_0/sim/design_1_microblaze_0_0.vhd" \
"../../../bd/design_1/ip/design_1_mdm_1_0/sim/design_1_mdm_1_0.vhd" \
"../../../bd/design_1/ip/design_1_clk_wiz_1_0/design_1_clk_wiz_1_0_sim_netlist.vhdl" \
"../../../bd/design_1/ip/design_1_rst_clk_wiz_1_100M_0/sim/design_1_rst_clk_wiz_1_100M_0.vhd" \
"../../../bd/design_1/ip/design_1_axi_uartlite_0_0/sim/design_1_axi_uartlite_0_0.vhd" \
"../../../bd/design_1/ip/design_1_mig_7series_0_0/design_1_mig_7series_0_0_sim_netlist.vhdl" \
"../../../bd/design_1/ip/design_1_axi_smc_0/design_1_axi_smc_0_sim_netlist.vhdl" \
"../../../bd/design_1/ip/design_1_rst_mig_7series_0_100M_0/sim/design_1_rst_mig_7series_0_100M_0.vhd" \
"../../../bd/design_1/ip/design_1_dlmb_v10_0/sim/design_1_dlmb_v10_0.vhd" \
"../../../bd/design_1/ip/design_1_ilmb_v10_0/sim/design_1_ilmb_v10_0.vhd" \
"../../../bd/design_1/ip/design_1_dlmb_bram_if_cntlr_0/sim/design_1_dlmb_bram_if_cntlr_0.vhd" \
"../../../bd/design_1/ip/design_1_ilmb_bram_if_cntlr_0/sim/design_1_ilmb_bram_if_cntlr_0.vhd" \
"../../../bd/design_1/ip/design_1_lmb_bram_0/design_1_lmb_bram_0_sim_netlist.vhdl" \
"../../../bd/design_1/ip/design_1_xbar_0/design_1_xbar_0_sim_netlist.vhdl" \
"../../../bd/design_1/sim/design_1.vhd" \
"c:/Users/jdunn/Documents/repo/ece383_dunn_jacob/Lab3/Lab3.srcs/sources_1/bd/design_1/ip/design_1_my_lab3_ip_0_0/design_1_my_lab3_ip_0_0_sim_netlist.vhdl" \

nosort
