xpm_cdc.sv,systemverilog,xil_defaultlib,../../../../../../../Xilinx/Vivado/2018.2/data/ip/xpm/xpm_cdc/hdl/xpm_cdc.sv,incdir="../../../../Lab4.srcs/sources_1/ip/clk_wiz_0_1"
xpm_VCOMP.vhd,vhdl,xpm,../../../../../../../Xilinx/Vivado/2018.2/data/ip/xpm/xpm_VCOMP.vhd,incdir="../../../../Lab4.srcs/sources_1/ip/clk_wiz_0_1"
clk_wiz_0_sim_netlist.vhdl,vhdl,xil_defaultlib,../../../../Lab4.srcs/sources_1/ip/clk_wiz_0_1/clk_wiz_0_sim_netlist.vhdl,incdir="../../../../Lab4.srcs/sources_1/ip/clk_wiz_0_1"
glbl.v,Verilog,xil_defaultlib,glbl.v
