Copyright 1986-2018 Xilinx, Inc. All Rights Reserved.
------------------------------------------------------------------------------------
| Tool Version : Vivado v.2018.2 (win64) Build 2258646 Thu Jun 14 20:03:12 MDT 2018
| Date         : Wed Jan 26 22:46:18 2022
| Host         : C23JMDunn running 64-bit major release  (build 9200)
| Command      : report_control_sets -verbose -file lab1_control_sets_placed.rpt
| Design       : lab1
| Device       : xc7a200t
------------------------------------------------------------------------------------

Control Set Information

Table of Contents
-----------------
1. Summary
2. Histogram
3. Flip-Flop Distribution
4. Detailed Control Set Information

1. Summary
----------

+----------------------------------------------------------+-------+
|                          Status                          | Count |
+----------------------------------------------------------+-------+
| Number of unique control sets                            |    13 |
| Unused register locations in slices containing registers |    46 |
+----------------------------------------------------------+-------+


2. Histogram
------------

+--------+--------------+
| Fanout | Control Sets |
+--------+--------------+
|      8 |            1 |
|     10 |            4 |
|     12 |            2 |
|    16+ |            6 |
+--------+--------------+


3. Flip-Flop Distribution
-------------------------

+--------------+-----------------------+------------------------+-----------------+--------------+
| Clock Enable | Synchronous Set/Reset | Asynchronous Set/Reset | Total Registers | Total Slices |
+--------------+-----------------------+------------------------+-----------------+--------------+
| No           | No                    | No                     |              96 |           17 |
| No           | No                    | Yes                    |               0 |            0 |
| No           | Yes                   | No                     |              66 |           10 |
| Yes          | No                    | No                     |              28 |            8 |
| Yes          | No                    | Yes                    |               0 |            0 |
| Yes          | Yes                   | No                     |              52 |           11 |
+--------------+-----------------------+------------------------+-----------------+--------------+


4. Detailed Control Set Information
-----------------------------------

+--------------------------------------------------------+-------------------------------------------+---------------------------------------------+------------------+----------------+
|                      Clock Signal                      |               Enable Signal               |               Set/Reset Signal              | Slice Load Count | Bel Load Count |
+--------------------------------------------------------+-------------------------------------------+---------------------------------------------+------------------+----------------+
|  clk_IBUF                                              | trigger_time[8]_i_1_n_0                   |                                             |                2 |              8 |
|  video_inst/mmcm_adv_inst_display_clocks/inst/clk_out2 |                                           | video_inst/inst_dvid/shift_green[7]_i_1_n_0 |                1 |             10 |
|  video_inst/mmcm_adv_inst_display_clocks/inst/clk_out2 |                                           | video_inst/inst_dvid/shift_blue[7]_i_1_n_0  |                1 |             10 |
|  video_inst/mmcm_adv_inst_display_clocks/inst/clk_out2 |                                           | video_inst/inst_dvid/shift_red[7]_i_1_n_0   |                1 |             10 |
|  clk_IBUF                                              |                                           |                                             |                2 |             10 |
|  video_inst/mmcm_adv_inst_display_clocks/inst/clk_out2 |                                           | video_inst/inst_dvid/shift_red[9]_i_1_n_0   |                3 |             12 |
|  clk_IBUF                                              | trigger_time[8]_i_1_n_0                   | trigger_time[9]_i_1_n_0                     |                3 |             12 |
|  video_inst/mmcm_adv_inst_display_clocks/inst/clk_out1 | video_inst/Inst_vga/processCol[9]_i_2_n_0 | video_inst/Inst_vga/processCol[9]_i_1_n_0   |                4 |             20 |
|  video_inst/mmcm_adv_inst_display_clocks/inst/clk_out1 | video_inst/Inst_vga/processRow0           | video_inst/Inst_vga/processRow[9]_i_1_n_0   |                4 |             20 |
|  clk_IBUF                                              | trigger_volt[9]_i_1_n_0                   |                                             |                6 |             20 |
|  video_inst/mmcm_adv_inst_display_clocks/inst/clk_out1 |                                           | video_inst/Inst_vga/SR[0]                   |                4 |             24 |
|  video_inst/mmcm_adv_inst_display_clocks/inst/clk_out2 |                                           |                                             |                4 |             38 |
|  video_inst/mmcm_adv_inst_display_clocks/inst/clk_out1 |                                           |                                             |               11 |             48 |
+--------------------------------------------------------+-------------------------------------------+---------------------------------------------+------------------+----------------+


