Copyright 1986-2018 Xilinx, Inc. All Rights Reserved.
------------------------------------------------------------------------------------------------------------------------------------------------
| Tool Version : Vivado v.2018.2 (win64) Build 2258646 Thu Jun 14 20:03:12 MDT 2018
| Date         : Sat Apr 23 13:56:30 2022
| Host         : DESKTOP-DNF5IPP running 64-bit major release  (build 9200)
| Command      : report_bus_skew -warn_on_violation -file video_bus_skew_routed.rpt -pb video_bus_skew_routed.pb -rpx video_bus_skew_routed.rpx
| Design       : video
| Device       : 7a200t-sbg484
| Speed File   : -1  PRODUCTION 1.22 2018-03-21
------------------------------------------------------------------------------------------------------------------------------------------------

Bus Skew Report

No bus skew constraints

