Design Route Status
                                               :      # nets :
   ------------------------------------------- : ----------- :
   # of logical nets.......................... :       40436 :
       # of nets not needing routing.......... :       19593 :
           # of internally routed nets........ :       18964 :
           # of nets with no loads............ :         629 :
       # of routable nets..................... :       20843 :
           # of fully routed nets............. :       20843 :
       # of nets with routing errors.......... :           0 :
   ------------------------------------------- : ----------- :

